…
- [Momocs2::bot](https://momx.github.io/Momocs2/reference/bot.html) for
  the original unprocessed bottle outlines

- [`Momocs2::unfold()`](https://momx.github.io/Momocs2/reference/unfold.html)
  to expand coefficient columns for analysis

- [`Momocs2::fold()`](https://momx.github.io/Momocs2/reference/fold.html)
  for the opposite transformation

## Examples

``` r
# View structure
boteft
#> # A tibble: 40 × 7
#>    id           coo       coe   type   fake  price length
#>    <chr>        <out>     <eft> <fct>  <fct> <dbl>  <dbl>
#>  1 brahma       (138 x 2) <24>  whisky a       3    1088.
#>  2 caney        (168 x 2) <24>  whisky a       1.2   994.
#>  3 chimay       (189 x 2) <24>  whisky a       3.8   644.
#>  4 corona       (129 x 2) <24>  whisky a       2.6   806.
#>  5 deusventrue  (152 x 2) <24>  whisky a       1.1   886.
#>  6 duvel        (161 x 2) <24>  whisky a       3.1   606.
#>  7 franziskaner (124 x 2) <24>  whisky a       2.6   865.
#>  8 grimbergen   (126 x 2) <24>  whisky a       2.9   765.
#>  9 guiness      (183 x 2) <24>  whisky a       1.2   742.
#> 10 hoegardeen   (193 x 2) <24>  whisky a       3.6  1048.
#> # ℹ 30 more rows
…
