A nicely problematic tibble — dummy_df • Momstats
…
    A nicely problematic tibble

    dummy_df.Rd

    A nicely problematic tibble

    Format

    todo

    Examples

dummy_df
#> # A tibble: 100 x 11
#>         a      b      c     d     e     f foo1  foo2  foo3   e_NA foo2_NA
#>     <dbl>  <dbl>  <dbl> <dbl> <dbl> <dbl> <fct> <fct> <fct> <dbl> <fct>  
#>  1  0.445  0.445 0.179   3.14  3.11     3 a     G     no     3.11 G      
#>  2  1.50   1.50  0.775   3.14  3.20     3 a     C     yes    3.20 C      
#>  3 -1.98  -1.98  0.841   3.14  3.20     3 a     D     yes    3.20 D      
#>  4  0.125  0.125 0.287   3.14  3.19     3 a     F     no     3.19 F      
#>  5 -1.41  -1.41  0.974   3.14  3.12     3 a     D     yes   NA    D      
#>  6 -1.07  -1.07  0.680   3.14  3.13     3 a     F     yes    3.13 F      
#>  7 -1.18  -1.18  0.598   3.14  3.11     3 a     D     no     3.11 <NA>   
#>  8  0.752  0.753 0.435   3.14  3.19     3 a     E     yes    3.19 E      
#>  9  0.588  0.588 0.0854  3.14  3.15     3 a     I     yes    3.15 I      
#> 10 -0.158 -0.158 0.315   3.14  3.15     3 a     B     no     3.15 B      
#> # … with 90 more rows
…
